…
    ## Warning: There were 44 warnings in `mutate()`.
    ## The first warning was:
    ## ℹ In argument: `results = map(model, ~broom::tidy(.x, conf.int = TRUE,
    ##   exponentiate = TRUE))`.
    ## ℹ In group 1: `city_state = "Albuquerque, NM"`.
    ## Caused by warning:
    ## ! glm.fit: fitted probabilities numerically 0 or 1 occurred
    ## ℹ Run `dplyr::last_dplyr_warnings()` to see the 43 remaining warnings.

``` r
city_fit_results
```

    ## # A tibble: 47 × 8
    ## # Groups:   city_state [47]
    ##    city_state     term  estimate std.error statistic  p.value conf.low conf.high
    ##    <chr>          <chr>    <dbl>     <dbl>     <dbl>    <dbl>    <dbl>     <dbl>
    ##  1 New York, NY   vict…    0.161     0.395     -4.62 3.81e- 6   0.0691     0.331
    ##  2 Long Beach, CA vict…    0.165     0.757     -2.38 1.73e- 2   0.0258     0.588
    ##  3 Denver, CO     vict…    0.187     0.507     -3.31 9.34e- 4   0.0613     0.466
    ##  4 San Diego, CA  vict…    0.194     0.550     -2.99 2.83e- 3   0.0560     0.511
    ##  5 Cincinnati, OH vict…    0.206     0.350     -4.53 5.98e- 6   0.0977     0.390
    ##  6 San Antonio, … vict…    0.288     0.393     -3.17 1.52e- 3   0.126      0.595
    ##  7 Charlotte, NC  vict…    0.301     0.351     -3.42 6.16e- 4   0.143      0.572
    ##  8 Baton Rouge, … vict…    0.319     0.333     -3.44 5.87e- 4   0.160      0.596
    ##  9 Philadelphia,… vict…    0.324     0.159     -7.07 1.50e-12   0.235      0.440
    ## 10 Sacramento, CA vict…    0.337     0.440     -2.47 1.35e- 2   0.132      0.757
    ## # ℹ 37 more rows
…
